{
  "items": [
    {
      "external_urls": {
        "spotify": "https://open.spotify.com/artist/0bjdfjE8XbLa2Odstu6E1E"
      },
      "followers": {
        "href": null,
        "total": 157700
      },
      "genres": [
        "classical soprano",
        "opera",
        "operatic pop"
      ],
      "href": "https://api.spotify.com/v1/artists/0bjdfjE8XbLa2Odstu6E1E",
      "id": "0bjdfjE8XbLa2Odstu6E1E",
      "images": [
        {
          "height": 640,
          "url": "https://i.scdn.co/image/a52b6b3d7654ce2ee5819efde4857bb3218a0575",
          "width": 640
        },
        {
          "height": 320,
          "url": "https://i.scdn.co/image/b2689eb9b6aa474d9d9c381a8d89cf23bd221a5f",
          "width": 320
        },
        {
          "height": 160,
          "url": "https://i.scdn.co/image/6826b67ebb38bc7aeb254eb5a33671148a0a796a",
          "width": 160
        }
      ],
      "name": "Maria Callas",
      "popularity": 54,
      "type": "artist",
      "uri": "spotify:artist:0bjdfjE8XbLa2Odstu6E1E"
    },
    {
      "external_urls": {
        "spotify": "https://open.spotify.com/artist/0Y8KmFkKOgJybpVobn1onU"
      },
      "followers": {
        "href": null,
        "total": 404625
      },
      "genres": [
        "canzone napoletana",
        "classical tenor",
        "opera",
        "operatic pop"
      ],
      "href": "https://api.spotify.com/v1/artists/0Y8KmFkKOgJybpVobn1onU",
      "id": "0Y8KmFkKOgJybpVobn1onU",
      "images": [
        {
          "height": 1000,
          "url": "https://i.scdn.co/image/76bf724474098649c575f6bf7f30841432fb6078",
          "width": 1000
        },
        {
          "height": 640,
          "url": "https://i.scdn.co/image/ee47a01d82de862d86883da07897fa1c79c3152b",
          "width": 640
        },
        {
          "height": 200,
          "url": "https://i.scdn.co/image/67eb2be0dd4391073e886b2eee1277b39208fb35",
          "width": 200
        },
        {
          "height": 64,
          "url": "https://i.scdn.co/image/1a57e7ad5a95349128be016de1ae94af27b8f3ea",
          "width": 64
        }
      ],
      "name": "Luciano Pavarotti",
      "popularity": 64,
      "type": "artist",
      "uri": "spotify:artist:0Y8KmFkKOgJybpVobn1onU"
    },
    {
      "external_urls": {
        "spotify": "https://open.spotify.com/artist/003f4bk13c6Q3gAUXv7dGJ"
      },
      "followers": {
        "href": null,
        "total": 61607
      },
      "genres": [
        "classical",
        "classical performance",
        "orchestra"
      ],
      "href": "https://api.spotify.com/v1/artists/003f4bk13c6Q3gAUXv7dGJ",
      "id": "003f4bk13c6Q3gAUXv7dGJ",
      "images": [
        {
          "height": 640,
          "url": "https://i.scdn.co/image/c6c59ecb176f564d2eb588e7cf2d61d156529dd3",
          "width": 640
        },
        {
          "height": 320,
          "url": "https://i.scdn.co/image/fbdd08df9bcf42483f09f4d710d11e4a154c75d1",
          "width": 320
        },
        {
          "height": 160,
          "url": "https://i.scdn.co/image/94c991d9e8b4681cf1aec471d1c09efc1811e3f8",
          "width": 160
        }
      ],
      "name": "Wiener Philharmoniker",
      "popularity": 68,
      "type": "artist",
      "uri": "spotify:artist:003f4bk13c6Q3gAUXv7dGJ"
    },
    {
      "external_urls": {
        "spotify": "https://open.spotify.com/artist/0k17h0D3J5VfsdmQ1iZtE9"
      },
      "followers": {
        "href": null,
        "total": 10277172
      },
      "genres": [
        "album rock",
        "art rock",
        "classic rock",
        "progressive rock",
        "psychedelic rock",
        "rock",
        "symphonic rock"
      ],
      "href": "https://api.spotify.com/v1/artists/0k17h0D3J5VfsdmQ1iZtE9",
      "id": "0k17h0D3J5VfsdmQ1iZtE9",
      "images": [
        {
          "height": 977,
          "url": "https://i.scdn.co/image/e69f71e2be4b67b82af90fb8e9d805715e0684fa",
          "width": 1000
        },
        {
          "height": 625,
          "url": "https://i.scdn.co/image/d011c95081cd9a329e506abd7ded47535d524a07",
          "width": 640
        },
        {
          "height": 195,
          "url": "https://i.scdn.co/image/f0a39a8a196a87a7236bdcf8a8708f6d5d3547cc",
          "width": 200
        },
        {
          "height": 63,
          "url": "https://i.scdn.co/image/ec1fb7127168dbaa962404031409c5a293b95ec6",
          "width": 64
        }
      ],
      "name": "Pink Floyd",
      "popularity": 81,
      "type": "artist",
      "uri": "spotify:artist:0k17h0D3J5VfsdmQ1iZtE9"
    },
    {
      "external_urls": {
        "spotify": "https://open.spotify.com/artist/4q3ewBCX7sLwd24euuV69X"
      },
      "followers": {
        "href": null,
        "total": 15214697
      },
      "genres": [
        "reggaeton",
        "trap latino"
      ],
      "href": "https://api.spotify.com/v1/artists/4q3ewBCX7sLwd24euuV69X",
      "id": "4q3ewBCX7sLwd24euuV69X",
      "images": [
        {
          "height": 640,
          "url": "https://i.scdn.co/image/22590f4021a00d1cad0821cc46a54395960342ee",
          "width": 640
        },
        {
          "height": 320,
          "url": "https://i.scdn.co/image/0abb644a790be16a30f3e4285dd7a56d69edabaa",
          "width": 320
        },
        {
          "height": 160,
          "url": "https://i.scdn.co/image/1c874c34edcd8ff055a4e7b354c6402f4b11d6a3",
          "width": 160
        }
      ],
      "name": "Bad Bunny",
      "popularity": 96,
      "type": "artist",
      "uri": "spotify:artist:4q3ewBCX7sLwd24euuV69X"
    },
    {
      "external_urls": {
        "spotify": "https://open.spotify.com/artist/6kjCrVbejP0Aw6otiMaxNt"
      },
      "followers": {
        "href": null,
        "total": 14922
      },
      "genres": [
        "canzone napoletana",
        "classical tenor",
        "opera",
        "operatic pop"
      ],
      "href": "https://api.spotify.com/v1/artists/6kjCrVbejP0Aw6otiMaxNt",
      "id": "6kjCrVbejP0Aw6otiMaxNt",
      "images": [
        {
          "height": 1000,
          "url": "https://i.scdn.co/image/ff7b4ec8251098484b6aa11977f37c4c26ab94f6",
          "width": 1000
        },
        {
          "height": 640,
          "url": "https://i.scdn.co/image/72b6d214ff8f4d69a3d3bb8084317d2ed548e4d0",
          "width": 640
        },
        {
          "height": 200,
          "url": "https://i.scdn.co/image/55624f3e0559559402547e935a3923b845f5c85f",
          "width": 200
        },
        {
          "height": 64,
          "url": "https://i.scdn.co/image/d502898bf5261104b64c4a30d6106f4f09d5662a",
          "width": 64
        }
      ],
      "name": "Giuseppe Di Stefano",
      "popularity": 42,
      "type": "artist",
      "uri": "spotify:artist:6kjCrVbejP0Aw6otiMaxNt"
    },
    {
      "external_urls": {
        "spotify": "https://open.spotify.com/artist/1vyhD5VmyZ7KMfW5gqLgo5"
      },
      "followers": {
        "href": null,
        "total": 15650392
      },
      "genres": [
        "latin",
        "reggaeton"
      ],
      "href": "https://api.spotify.com/v1/artists/1vyhD5VmyZ7KMfW5gqLgo5",
      "id": "1vyhD5VmyZ7KMfW5gqLgo5",
      "images": [
        {
          "height": 640,
          "url": "https://i.scdn.co/image/7f49c99b5e1c1e0210729e062187518e99b19919",
          "width": 640
        },
        {
          "height": 320,
          "url": "https://i.scdn.co/image/afb31745387c36e19156b234dbb4a5c30e55fcd1",
          "width": 320
        },
        {
          "height": 160,
          "url": "https://i.scdn.co/image/9029a366dfe5a30622b4b002d4a17c5e0a1c7d94",
          "width": 160
        }
      ],
      "name": "J Balvin",
      "popularity": 97,
      "type": "artist",
      "uri": "spotify:artist:1vyhD5VmyZ7KMfW5gqLgo5"
    },
    {
      "external_urls": {
        "spotify": "https://open.spotify.com/artist/2MRBDr0crHWE5JwPceFncq"
      },
      "followers": {
        "href": null,
        "total": 3560445
      },
      "genres": [
        "latin",
        "latin pop"
      ],
      "href": "https://api.spotify.com/v1/artists/2MRBDr0crHWE5JwPceFncq",
      "id": "2MRBDr0crHWE5JwPceFncq",
      "images": [
        {
          "height": 1066,
          "url": "https://i.scdn.co/image/022102638a204d6cb0bb6276ba2656f9c92bf2c3",
          "width": 1000
        },
        {
          "height": 682,
          "url": "https://i.scdn.co/image/d82a0dee228b5a991f8c7207a3fe65117e23f3eb",
          "width": 640
        },
        {
          "height": 213,
          "url": "https://i.scdn.co/image/a6e023b30c5d500cda3da892a01ed521d58b14eb",
          "width": 200
        },
        {
          "height": 68,
          "url": "https://i.scdn.co/image/3661070b60de6828f49bf12541571ad930c79a02",
          "width": 64
        }
      ],
      "name": "Juan Gabriel",
      "popularity": 76,
      "type": "artist",
      "uri": "spotify:artist:2MRBDr0crHWE5JwPceFncq"
    },
    {
      "external_urls": {
        "spotify": "https://open.spotify.com/artist/5dz9lXIYillOvg5xH0t5EN"
      },
      "followers": {
        "href": null,
        "total": 10184
      },
      "genres": [
        "classical performance",
        "classical soprano",
        "opera"
      ],
      "href": "https://api.spotify.com/v1/artists/5dz9lXIYillOvg5xH0t5EN",
      "id": "5dz9lXIYillOvg5xH0t5EN",
      "images": [
        {
          "height": 332,
          "url": "https://i.scdn.co/image/50862fd686d3ce1947fed4bc325ecc7c05eacd43",
          "width": 288
        },
        {
          "height": 231,
          "url": "https://i.scdn.co/image/2b2e79de27c35d81a48f1e01ee83bb09d191f970",
          "width": 200
        },
        {
          "height": 74,
          "url": "https://i.scdn.co/image/6431606e439b465bd52ecd07c8420b9f78af25bb",
          "width": 64
        }
      ],
      "name": "Mirella Freni",
      "popularity": 44,
      "type": "artist",
      "uri": "spotify:artist:5dz9lXIYillOvg5xH0t5EN"
    },
    {
      "external_urls": {
        "spotify": "https://open.spotify.com/artist/3JSSjGYcIkgsrz7892CelT"
      },
      "followers": {
        "href": null,
        "total": 258637
      },
      "genres": [
        "chihuahua indie",
        "mexican indie"
      ],
      "href": "https://api.spotify.com/v1/artists/3JSSjGYcIkgsrz7892CelT",
      "id": "3JSSjGYcIkgsrz7892CelT",
      "images": [
        {
          "height": 640,
          "url": "https://i.scdn.co/image/d743659aa95cb73370a92241181714caf750c288",
          "width": 640
        },
        {
          "height": 320,
          "url": "https://i.scdn.co/image/1fe2fdfebd12d18ba5ffaf821e47cd7de616c90b",
          "width": 320
        },
        {
          "height": 160,
          "url": "https://i.scdn.co/image/8fe0cc13818974ee635a98d78916f3840533b89d",
          "width": 160
        }
      ],
      "name": "Ed Maverick",
      "popularity": 72,
      "type": "artist",
      "uri": "spotify:artist:3JSSjGYcIkgsrz7892CelT"
    },
    {
      "external_urls": {
        "spotify": "https://open.spotify.com/artist/4pU3BpenOZFEBzORx2YBJW"
      },
      "followers": {
        "href": null,
        "total": 104346
      },
      "genres": [
        "classical tenor",
        "opera",
        "operatic pop"
      ],
      "href": "https://api.spotify.com/v1/artists/4pU3BpenOZFEBzORx2YBJW",
      "id": "4pU3BpenOZFEBzORx2YBJW",
      "images": [
        {
          "height": 887,
          "url": "https://i.scdn.co/image/cd7bd083928d11461642bf32df6f5bda813785f9",
          "width": 1000
        },
        {
          "height": 567,
          "url": "https://i.scdn.co/image/87e98fa0114726ef01bb4dc202a32550c89a5fd0",
          "width": 640
        },
        {
          "height": 177,
          "url": "https://i.scdn.co/image/3c3a0ec489ec852dfb35a050da2153a2367c4609",
          "width": 200
        },
        {
          "height": 57,
          "url": "https://i.scdn.co/image/fa8cb007c988c9b080b85cccad3f088d56382eaf",
          "width": 64
        }
      ],
      "name": "Plácido Domingo",
      "popularity": 57,
      "type": "artist",
      "uri": "spotify:artist:4pU3BpenOZFEBzORx2YBJW"
    },
    {
      "external_urls": {
        "spotify": "https://open.spotify.com/artist/0YC192cP3KPCRWx8zr8MfZ"
      },
      "followers": {
        "href": null,
        "total": 1679279
      },
      "genres": [
        "german soundtrack",
        "soundtrack"
      ],
      "href": "https://api.spotify.com/v1/artists/0YC192cP3KPCRWx8zr8MfZ",
      "id": "0YC192cP3KPCRWx8zr8MfZ",
      "images": [
        {
          "height": 640,
          "url": "https://i.scdn.co/image/7400192eccc75d72a35f77f1df503ef6e937c066",
          "width": 640
        },
        {
          "height": 320,
          "url": "https://i.scdn.co/image/635afc786816b69612cc70fd43b1f7c43b49b56b",
          "width": 320
        },
        {
          "height": 160,
          "url": "https://i.scdn.co/image/6837ada9b53d1ee7c9e92ab98bff3c924e9085e6",
          "width": 160
        }
      ],
      "name": "Hans Zimmer",
      "popularity": 78,
      "type": "artist",
      "uri": "spotify:artist:0YC192cP3KPCRWx8zr8MfZ"
    },
    {
      "external_urls": {
        "spotify": "https://open.spotify.com/artist/4K41ddEQfjQ0XGZPA6ErMg"
      },
      "followers": {
        "href": null,
        "total": 2914
      },
      "genres": [
        "guadalajara indie"
      ],
      "href": "https://api.spotify.com/v1/artists/4K41ddEQfjQ0XGZPA6ErMg",
      "id": "4K41ddEQfjQ0XGZPA6ErMg",
      "images": [
        {
          "height": 640,
          "url": "https://i.scdn.co/image/cb67a66fc425eee2669aadf21031b092da8ad4f1",
          "width": 640
        },
        {
          "height": 320,
          "url": "https://i.scdn.co/image/796332768c885bfa2ab64237b0eace37d225c273",
          "width": 320
        },
        {
          "height": 160,
          "url": "https://i.scdn.co/image/1a619f63283588474a1d99817cd9f1929fc63785",
          "width": 160
        }
      ],
      "name": "Costa de Ámbar",
      "popularity": 35,
      "type": "artist",
      "uri": "spotify:artist:4K41ddEQfjQ0XGZPA6ErMg"
    },
    {
      "external_urls": {
        "spotify": "https://open.spotify.com/artist/3EA9hVIzKfFiQI0Kikz2wo"
      },
      "followers": {
        "href": null,
        "total": 1178633
      },
      "genres": [
        "classical tenor",
        "operatic pop"
      ],
      "href": "https://api.spotify.com/v1/artists/3EA9hVIzKfFiQI0Kikz2wo",
      "id": "3EA9hVIzKfFiQI0Kikz2wo",
      "images": [
        {
          "height": 640,
          "url": "https://i.scdn.co/image/0c08166be4b6e8c6acec324162688945ad8ab465",
          "width": 640
        },
        {
          "height": 320,
          "url": "https://i.scdn.co/image/0bab2f4a680cac606e8199583a76060ef9f7e63c",
          "width": 320
        },
        {
          "height": 160,
          "url": "https://i.scdn.co/image/a0ef1229431743ee5f6f9e1f87d4db76ba9a857a",
          "width": 160
        }
      ],
      "name": "Andrea Bocelli",
      "popularity": 70,
      "type": "artist",
      "uri": "spotify:artist:3EA9hVIzKfFiQI0Kikz2wo"
    },
    {
      "external_urls": {
        "spotify": "https://open.spotify.com/artist/7dGJo4pcD2V6oG8kP0tJRR"
      },
      "followers": {
        "href": null,
        "total": 29556925
      },
      "genres": [
        "detroit hip hop",
        "g funk",
        "hip hop",
        "rap"
      ],
      "href": "https://api.spotify.com/v1/artists/7dGJo4pcD2V6oG8kP0tJRR",
      "id": "7dGJo4pcD2V6oG8kP0tJRR",
      "images": [
        {
          "height": 640,
          "url": "https://i.scdn.co/image/60c4daa4721f666c6afaee82a39bd413979a0474",
          "width": 640
        },
        {
          "height": 320,
          "url": "https://i.scdn.co/image/ae8dd3b01ada324eeb8c0b341e8f7ebda406095e",
          "width": 320
        },
        {
          "height": 160,
          "url": "https://i.scdn.co/image/ed213a32e1327f3f2d7b2539eb1db57f55b68dbb",
          "width": 160
        }
      ],
      "name": "Eminem",
      "popularity": 92,
      "type": "artist",
      "uri": "spotify:artist:7dGJo4pcD2V6oG8kP0tJRR"
    },
    {
      "external_urls": {
        "spotify": "https://open.spotify.com/artist/3iOvXCl6edW5Um0fXEBRXy"
      },
      "followers": {
        "href": null,
        "total": 3209358
      },
      "genres": [
        "downtempo",
        "dream pop",
        "electropop",
        "indietronica",
        "pop"
      ],
      "href": "https://api.spotify.com/v1/artists/3iOvXCl6edW5Um0fXEBRXy",
      "id": "3iOvXCl6edW5Um0fXEBRXy",
      "images": [
        {
          "height": 640,
          "url": "https://i.scdn.co/image/922163afa546eca372c27be4513a481de06e9481",
          "width": 640
        },
        {
          "height": 320,
          "url": "https://i.scdn.co/image/8ef506656acfc2bc1449b9a963026bd7296df2e2",
          "width": 320
        },
        {
          "height": 160,
          "url": "https://i.scdn.co/image/7e7c16105b54b9abcc056d25b3fb549372a8df38",
          "width": 160
        }
      ],
      "name": "The xx",
      "popularity": 71,
      "type": "artist",
      "uri": "spotify:artist:3iOvXCl6edW5Um0fXEBRXy"
    },
    {
      "external_urls": {
        "spotify": "https://open.spotify.com/artist/6HQYnRM4OzToCYPpVBInuU"
      },
      "followers": {
        "href": null,
        "total": 248710
      },
      "genres": [
        "contemporary jazz",
        "indie jazz",
        "jazz saxophone"
      ],
      "href": "https://api.spotify.com/v1/artists/6HQYnRM4OzToCYPpVBInuU",
      "id": "6HQYnRM4OzToCYPpVBInuU",
      "images": [
        {
          "height": 640,
          "url": "https://i.scdn.co/image/ee83007e1899a2f9da5fa6d0394831aaef441928",
          "width": 640
        },
        {
          "height": 320,
          "url": "https://i.scdn.co/image/caff9f7d3f1a66bd36c5103179eda9aadf131ca3",
          "width": 320
        },
        {
          "height": 160,
          "url": "https://i.scdn.co/image/90c0797e4c07a84c907c25b21c365d584406c3af",
          "width": 160
        }
      ],
      "name": "Kamasi Washington",
      "popularity": 53,
      "type": "artist",
      "uri": "spotify:artist:6HQYnRM4OzToCYPpVBInuU"
    },
    {
      "external_urls": {
        "spotify": "https://open.spotify.com/artist/4fZVzi00xb3DKLG1GSSCUE"
      },
      "followers": {
        "href": null,
        "total": 189
      },
      "genres": [],
      "href": "https://api.spotify.com/v1/artists/4fZVzi00xb3DKLG1GSSCUE",
      "id": "4fZVzi00xb3DKLG1GSSCUE",
      "images": [
        {
          "height": 635,
          "url": "https://i.scdn.co/image/666da59d1e925c897f4fa6b8d5b2a9ef25f47086",
          "width": 640
        },
        {
          "height": 297,
          "url": "https://i.scdn.co/image/04cc4b79ef850d601d49ec0dc179d75c40b853c7",
          "width": 300
        },
        {
          "height": 63,
          "url": "https://i.scdn.co/image/8fd41a623e696a649b79f21713f9b779c0dee775",
          "width": 64
        }
      ],
      "name": "Michel Schwalbé",
      "popularity": 36,
      "type": "artist",
      "uri": "spotify:artist:4fZVzi00xb3DKLG1GSSCUE"
    },
    {
      "external_urls": {
        "spotify": "https://open.spotify.com/artist/6uRJnvQ3f8whVnmeoecv5Z"
      },
      "followers": {
        "href": null,
        "total": 100371
      },
      "genres": [
        "classical",
        "classical performance",
        "orchestra"
      ],
      "href": "https://api.spotify.com/v1/artists/6uRJnvQ3f8whVnmeoecv5Z",
      "id": "6uRJnvQ3f8whVnmeoecv5Z",
      "images": [
        {
          "height": 640,
          "url": "https://i.scdn.co/image/b3b3022dc15ef43590cc4784ccfb718cbcadbb96",
          "width": 640
        },
        {
          "height": 320,
          "url": "https://i.scdn.co/image/4a9146307da0db56e24c43c1dbc4e5d191d5c23d",
          "width": 320
        },
        {
          "height": 160,
          "url": "https://i.scdn.co/image/d088dd75c4a1680d97a33e665b527c1c8d890cc9",
          "width": 160
        }
      ],
      "name": "Berliner Philharmoniker",
      "popularity": 70,
      "type": "artist",
      "uri": "spotify:artist:6uRJnvQ3f8whVnmeoecv5Z"
    },
    {
      "external_urls": {
        "spotify": "https://open.spotify.com/artist/47MpMsUfWtgyIIBEFOr4FE"
      },
      "followers": {
        "href": null,
        "total": 723439
      },
      "genres": [
        "reggaeton",
        "reggaeton flow",
        "tropical"
      ],
      "href": "https://api.spotify.com/v1/artists/47MpMsUfWtgyIIBEFOr4FE",
      "id": "47MpMsUfWtgyIIBEFOr4FE",
      "images": [
        {
          "height": 640,
          "url": "https://i.scdn.co/image/d54ff5abb7307dfc1f113ad2c4d65098bf7e74a6",
          "width": 640
        },
        {
          "height": 320,
          "url": "https://i.scdn.co/image/f3656bb160f1a779a9fbf9e3ebae187e41afe2dc",
          "width": 320
        },
        {
          "height": 160,
          "url": "https://i.scdn.co/image/343dc1918908c3dec556be0276a68001331f54bd",
          "width": 160
        }
      ],
      "name": "Lunay",
      "popularity": 84,
      "type": "artist",
      "uri": "spotify:artist:47MpMsUfWtgyIIBEFOr4FE"
    }
  ],
  "total": 50,
  "limit": 20,
  "offset": 0,
  "previous": null,
  "href": "https://api.spotify.com/v1/me/top/artists",
  "next": "https://api.spotify.com/v1/me/top/artists?limit=20&offset=20"
}